[
  {
    "id":"1",
    "title":"Dziekanat GSW w Tczewie NIECZYNNY w dniach 27-28.05.2016 r.",
    "header":"W dniach 27-28.05.2016 r. dziekanat GSW w Tczewie jest NIECZYNNY. Dziekanat będzie czynny w niedzielę 29.05.2016 r. w godz. 8:00-14:00. Za utrudnienia przepraszamy.",
    "desc":"W dniach 27-28.05.2016 r. dziekanat GSW w Tczewie jest NIECZYNNY. Dziekanat będzie czynny w niedzielę 29.05.2016 r. w godz. 8:00-14:00. Za utrudnienia przepraszamy.",
    "img":"news1.jpg"
  },
  {
    "id":"2",
    "title":"Dziekanat GSW w Tczewie NIECZYNNY w dniu 22.05.2016 r. (niedziela)",
    "header":"Dziekanat GSW w Tczewie będzie NIECZYNNY w dniu 22.05.2016 r. (niedziela). Za utrudnienia przepraszamy.",
    "desc":"Dziekanat GSW w Tczewie będzie NIECZYNNY w dniu 22.05.2016 r. (niedziela). Za utrudnienia przepraszamy.",
    "img":"news2.jpg"
  },
  {
    "id":"3",
    "title":"Uwaga! Zmiana w planie zajęć Ip1-MSU i Ip2-MSU w Gdańsku w dniu 21.05.2016 r. (sobota)",
    "header":"Z przyczyn nagłych i niezależnych nastąpiły zmiany w planie zajęć Ip1-MSU i Ip2-MSU w Gdańsku w dniu 21.05.2016 r. (sobota). Prosimy o zapoznanie się ze zmianami. Zajęcia, które zostały odwołane, zostaną odrobione podczas kolejnych zjazdów. Przepraszamy za utrudnienia oraz prosimy o sprawdzenie aktualizacji planu zajęć przed kolejnym zjazdem",
    "desc":"Z przyczyn nagłych i niezależnych nastąpiły zmiany w planie zajęć Ip1-MSU i Ip2-MSU w Gdańsku w dniu 21.05.2016 r. (sobota). Prosimy o zapoznanie się ze zmianami. Zajęcia, które zostały odwołane, zostaną odrobione podczas kolejnych zjazdów. Przepraszamy za utrudnienia oraz prosimy o sprawdzenie aktualizacji planu zajęć przed kolejnym zjazdem",
    "img":"news3.jpg"
  }
]